<?xml version="1.0" encoding="utf-8"?>
<!-- Generator: Adobe Illustrator 17.0.0, SVG Export Plug-In . SVG Version: 6.00 Build 0)  -->
<!DOCTYPE svg PUBLIC "-//W3C//DTD SVG 1.1//EN" "http://www.w3.org/Graphics/SVG/1.1/DTD/svg11.dtd">
<svg version="1.1" id="Layer_1" xmlns="http://www.w3.org/2000/svg" xmlns:xlink="http://www.w3.org/1999/xlink" x="0px" y="0px"
	 width="400px" height="400px" viewBox="-150 -150 400 400" style="enable-background:new -150 -150 400 400;" xml:space="preserve"
	>
<style type="text/css">
	.st0{opacity:0.6;fill:#26C0D8;enable-background:new    ;}
	.st1{fill:#A01E21;}
	.st2{fill:#F05A28;}
	.st3{fill:url(#SVGID_1_);}
	.st4{fill:url(#SVGID_2_);}
	.st5{fill:url(#SVGID_3_);}
	.st6{fill:url(#SVGID_4_);}
	.st7{fill:url(#SVGID_5_);}
	.st8{fill:#D05BA1;}
	.st9{fill:#A0226A;}
	.st10{fill:#26A9E0;}
	.st11{fill:#231F20;}
	.check{stroke:#fff;stroke-width:4px;stroke-linecap:round;fill:#00D622;}
</style>
<g id="circle">
	<circle class="st0" cx="50" cy="50" r="200"/>
</g>
<g id="pulm_veins">
	<path class="st1" d="M84.1,39.3c4.7,1,5.2,2.9,5.2,2.9c8.2-10.5,10.8-16.8,21.2-23c7.6-4.5,4.8-4.7,4.8-10c5-1.5,11.2-3.9,16.6,2.8
		c3.4,4.2,5.1,6.2,5.4,10.2c2.4,1.4,3.5-1,8.3,4.8c2,2.5,4,5.3,5.5,7.8c4.8-8.8,3.4-24.1,1.2-28.3c-4-7.7-2.7-16.5,2.6-15.8
		s8.5,5.8,8.5,5.8c3.8,0.9,6.1-1.3,6.6-1.3l4.1,4c4.9-1.2,6.5-1.3,8.8-8l-10-12.3c0,0,11.5,3.5,11.5,0.8c0-4.4,3.3-13.5,0-17.8
		c-1.6-2.1-10.5,1.8-10.5,1.8l2.5-4.5c0,0,1-8.3-2.8-8.8c-3.8-0.5-0.5,4-17.8,11s-38.5,15.5-44.5,18s-16.8,14-17,24.8
		s-7.5,24.1-8.5,28.3C85.1,35.2,84.1,39.3,84.1,39.3z"/>
</g>
<g id="pulmn_art">
	<path class="st2" d="M9.9,27.6c-0.3,0.1-0.4,0.2-0.4,0.2S9.7,27.7,9.9,27.6z"/>
	
		<linearGradient id="SVGID_1_" gradientUnits="userSpaceOnUse" x1="157.5782" y1="173.0802" x2="30.3914" y2="70.4798" gradientTransform="matrix(1 0 0 -1 0 101)">
		<stop  offset="0" style="stop-color:#EE7A4C;stop-opacity:0.6"/>
		<stop  offset="1" style="stop-color:#EE7A4C"/>
	</linearGradient>
	<path class="st3" d="M94.5,4c0.3-10.8,11-22.3,17-24.8s27.3-11,44.5-18c3.8-1.5,6.6-2.9,8.7-4.2c0.4-1.4,0.7-2.7,0.8-3.9
		c0.5-4.3,0.8-13.7,2-18.3s0.5-6.4-2.7-6.5c-5.5-0.2-22,2.5-33.3,5.7C117.9-62.2,87-49.5,74.3-46S59.5-44.8,50-50.3
		c0,0-18,29.5-10.5,28.7s11.3,0.2,13.8,7.5S47.7,0.7,37.8,8.3c-9.1,7.1-25.4,17.6-28,19.3c0.7-0.3,2.5-0.9,7.1-0.4
		c6.3,0.7,6.5,2.7,12.3,8.3c5.8,5.7,10.7,7.2,15,11.5S55,56.7,58,54.5s24.8,0.2,25.7-2c0.8-2.2,0.7-13.4,0.7-13.4s1-4.1,1.7-6.8
		C87,28.1,94.3,14.8,94.5,4z"/>
</g>
<g id="aorta">
	
		<linearGradient id="SVGID_2_" gradientUnits="userSpaceOnUse" x1="64.9222" y1="255.3042" x2="-26.331" y2="93.6018" gradientTransform="matrix(1 0 0 -1 0 101)">
		<stop  offset="0" style="stop-color:#A01E21;stop-opacity:0.8"/>
		<stop  offset="1" style="stop-color:#A01E21"/>
	</linearGradient>
	<path class="st4" d="M50-150c-4.4,0-8.7,0.2-13,0.5c-2.2,15.7-6.7,55-6.1,69.7c-0.8,0.5-1.5,1-2.2,1.5c-4.1-10.4-14.5-37.9-18-42.4
		c-2.8-3.6-7.2-15.3-9.9-23.1c-5.2,1.3-10.4,2.9-15.5,4.6c1.9,5.8,4.2,12.4,6.6,17.2c0,0,0,0,0,0c-0.3-0.4-0.5-0.7-0.7-1
		c-4.5-5.7-13.3-8.7-21.1-10.4c-9.7,4.2-19,9.2-27.8,14.9c5.3,0.1,12.4,0.3,17.6,0.3c6,0,13.1,2,18.3,6.3
		C1.9-92.1,6.5-71.4,8.3-61.1c-7.9,9.4-13,24.3-13.4,37.7c-0.3,10.4,4.6,43,6.3,53.7c0,0,16.6-2.3,16.9-2.8c0.2-0.3,0.4-0.6,0.5-0.9
		c-0.1,0-0.2,0-0.3,0c-4.6-0.5-6.4,0.1-7.1,0.4c1.9-1.2,11.2-7.2,19.6-13.1c2.1-1.7,4.5-3.5,6.9-5.5c4.1-3.2,8-6.4,10.9-9.6
		c-8.5-4.5-11.1-11.8-10.2-17c6-35.8,31-35.9,40.8-31.5c0.8,0.4,1.6,0.8,2.4,1.3c8.9-3,21.5-7.8,32.7-11.9c0-0.2-0.1-0.4-0.1-0.6
		c-2.1-13.8-25.6-30.4-46.7-30.7c0.1-8,2.4-18.1,12.2-25.3c12.3-9,13.1-11.1,29.6-5.5c14.1,4.7,10.9-11.4,7.1-12.5
		c-10.5-3-27.2-13.2-43.7,0C54.7-120.5,50.3-100.8,50-98.2c-0.4,3.1-0.4,6.6-0.3,9.3c-0.7,0.2-1.5,0.4-2.2,0.7
		c-0.4-19.1,5.1-45.7,7-61.6C53-149.9,51.5-150,50-150z"/>
</g>
<g id="vena_cavae">
	
		<linearGradient id="SVGID_3_" gradientUnits="userSpaceOnUse" x1="26.7306" y1="218.8646" x2="-18.1866" y2="140.3778" gradientTransform="matrix(1 0 0 -1 0 101)">
		<stop  offset="0" style="stop-color:#EE7A4C;stop-opacity:0.6"/>
		<stop  offset="1" style="stop-color:#EE7A4C"/>
	</linearGradient>
	<path class="st5" d="M-24.4-44.4c3.6-5.4,0.5-4.1,3.6-5.4c0,0,10.1,2,10.1,7.8S-15-28.5-15-26.5c3.1,1.7,7,5.2,10.5,8.7
		c0-0.1,0.1-0.1,0.1-0.2c-0.3-4.5,2.8-21.5,4.7-25.7c1.8-4.2,7.3-11,8-15.3s0.5-14.3,1-16.8s6.3-15.7,7-18.5s-2.2-5-2.2-5
		c-19,0-35.5,24.7-41.8,31.7c-5.5,6.1-11.2,25.3-12.9,36.6C-33.5-36.7-27-40.5-24.4-44.4z"/>
	
		<linearGradient id="SVGID_4_" gradientUnits="userSpaceOnUse" x1="-95.7365" y1="-56.2036" x2="-63.5849" y2="54.4344" gradientTransform="matrix(1 0 0 -1 0 101)">
		<stop  offset="0" style="stop-color:#EE7A4C;stop-opacity:0.6"/>
		<stop  offset="1" style="stop-color:#EE7A4C"/>
	</linearGradient>
	<path class="st6" d="M-59.3,86c-2.9-12.4-10.5-35.3-7.6-65.2C-77.4,36.2-92.1,71.7-95.6,86c-4.1,16.6-6.3,52.8-3.4,58
		c4.3,7.7,7.8,8.9,10.1,8.5s13-13.5,14.6-15.8s10.9-18.8,12.1-24.3c1.2-5.2,2.4-15.9,4.9-20C-58.1,90.2-58.8,88-59.3,86z"/>
</g>
<g id="ventricle">
	
		<radialGradient id="SVGID_5_" cx="-54.0794" cy="706.386" r="138.6376" gradientTransform="matrix(-0.1228 0.9924 0.9542 0.1181 -609.7157 56.4896)" gradientUnits="userSpaceOnUse">
		<stop  offset="0" style="stop-color:#EC1C24"/>
		<stop  offset="1" style="stop-color:#B9131A"/>
	</radialGradient>
	<path class="st7" d="M144.5,71c4.7-1.3,11.2-24.8,3.7-32.8c1.1-1,2-2.1,2.8-3.5c-1.6-2.5-3.5-5.5-5.5-8c-4.8-5.8-5.8-3.3-8.3-4.8
		c-0.3-4-2-5.9-5.4-10.2c-5.4-6.8-11.6-4.3-16.6-2.8c0,5.3,2.8,5.5-4.8,10c-10.4,6.2-16.3,10.8-21,22.5c0,0-0.8-1.4-5.4-2.4
		c0,0,0.2,11.3-0.7,13.4c-0.8,2.2-22.7-0.2-25.7,2s-9.3-3.2-13.7-7.5c-4.3-4.3-9.2-5.8-15-11.5c-5.4-5.3-6-7.3-11.1-8.2
		c0,0-17,2.9-17,2.9c-1.5-9.3-5.4-35-6.2-48.5C-5.5-18.5-5.7-18.7-6-19c-0.5-0.5-1.1-1.1-1.6-1.6c-0.4-0.4-0.8-0.7-1.1-1
		c-0.5-0.4-1-0.9-1.5-1.3c-0.5-0.4-1-0.8-1.5-1.2c-0.4-0.3-0.7-0.6-1.1-0.8c-0.8-0.6-1.6-1.1-2.4-1.6c0-2,4.3-9.8,4.3-15.5
		s-10.1-7.8-10.1-7.8c-3.2,1.4,0,0-3.6,5.4c-0.4,0.5-0.8,1.1-1.3,1.6c-0.2,0.2-0.3,0.3-0.5,0.5c-0.4,0.4-0.8,0.8-1.2,1.1
		c-0.2,0.2-0.4,0.4-0.7,0.6c-0.5,0.4-1,0.8-1.5,1.2c-0.2,0.1-0.4,0.3-0.5,0.4c-2.9,2.3-6.6,4.8-10.4,7.8
		C-50.4-23.5-61.1-12.6-65,6.3c-1,5-1.7,9.8-2.2,14.5c-0.5,5.4-0.7,10.6-0.6,15.6c0,0.2,0,0.4,0,0.5c0,1.4,0.1,2.9,0.2,4.3
		c0,0.3,0,0.7,0,1c0.1,1.4,0.2,2.7,0.3,4c0,0.3,0.1,0.7,0.1,1c0.1,1.3,0.2,2.6,0.4,3.9c0,0.2,0.1,0.5,0.1,0.7
		c0.9,7.2,2.1,13.6,3.4,19.2c0,0.2,0.1,0.4,0.1,0.6c0.2,1,0.4,1.9,0.7,2.8c0.1,0.3,0.1,0.5,0.2,0.8c0.7,2.7,1.3,5.1,1.9,7.3
		c0.1,0.2,0.1,0.5,0.2,0.7c0.2,1,0.5,1.9,0.7,2.8c0.3,1.2,0.7,2.4,1.1,3.6c0.3,0.9,0.7,1.9,1,2.9c9.2,23.9,38.6,57.6,49.5,77.2
		c4.4,8,14.9,16.3,20.8,20.4s14.8,20.5,17.6,24c12.7,15.5,42.5,21.7,54.8,20.4c12.2-1.4,19.9-9.5,21.7-14.5c1.8-5,6.8-6.8,7.7-9
		s24.8-54.7,34.3-81.4C157.8,104.8,153.5,80.5,144.5,71z"/>
</g>
<g id="cardiac_veins">
	<path class="st8" d="M96.5,78.8L93.2,57l-8.8-18.8c0,0-1.2,3.5-1,5.7s0.3,8.1,0.1,8.9s3.9,11.2,3.2,13.9c-0.7,2.7,0.8,8.3,0.7,10.8
		c-0.2,2.5-0.7,9.3-1.8,11.5c-1.2,2.2-3.5,6.3-4.3,9s-3.3,3.3-6.5,4.3s-10.2,3-12.2,4.2c-0.4,0.2-1.1,0.8-2,1.6
		c-0.2-0.3-0.6-0.6-1.2-0.8c-2-0.9-3.2-2.4-4.5-2.4s-3.3,0.5-4.8,1s-3.7,2.8-5,3s-3.5,0.7-5.7,0.8s-5.3,0.1-6.7,1.1
		c-1.3,1-1.7,3.7-1.7,3.7c1.2-2.2,2.2-2.3,5.3-2.7c3.2-0.3,4.9,0.8,6.9,0c2.1-0.8,4.6-1.5,6.1-2.5s1.8-2.7,4.2-1.5
		c1.6,0.8,3.5,2,4.5,2.7c-3.5,3.3-7.7,7.5-8,8c-0.5,0.8-5.2,1.8-6.7,1.8s-4.3,0.2-6.3,1.3c-2,1.2-6.3,2-8.3,2.3s-7.8-0.3-9.3,0
		s-2.3,1.3-3.7,3.3c0,0,2.8-1.6,3.8-1.8c2.5-0.6,7.6,0.2,10.2,0c1.9-0.1,5.8-1.3,7.5-1.3s5.7-2.2,8.3-2.8c2.7-0.7,2.5,0.2,2.5,0.2
		s-0.5,0.7-1.3,2.8s-0.2,3.7-0.7,6.5s-4.2,4.2-7.7,6.7S35,141,35,141l-1.8,3.8c0,0,4-4.2,5.5-5.7s7.8-3.8,9.3-6s0.8-9,2-10.2
		s4-2.7,8.2-6.2s8.8-7.2,14-9.5s9.5-2.1,9.5-2.1l-10.4,35.3l-6.8,10.3l-8.4,18.7c0,0-4.3,4.4-4.6,12.4c-0.2,7.9,0.2,16.4,0,24.2
		c-0.5-0.1-1,0.1-1.5,0.7c-1.5,1.8-1.2,4.8-0.7,7.2c0.3,1.2,0.8,2.6,1.5,4c0.7,1.5,1.6,3,2.6,4.5l0.1-4.2c-0.7-2.8-1.5-6.7-1.1-8.6
		c0.2-0.9,0.2-1.6,0-2.2c0.6-0.4,1.2-0.8,1.8-1.1l6.2,4.9l1.3-1l-5.7-6.2c-1.1-1.5-1.6-10.3-1.6-15.5s11.2-26.3,12.4-29.3
		S75,145.5,77,142.7c0.8-1.2,1.8-2.8,2.7-4.4c1.4,2.2,1.8,4.6,2.5,6.4c0.8,2.2,0.8,11.2,1,13.7s1.2,4.5,1.2,4.5v-1.3
		c0,0-0.5-0.8,0-3.5s1.2-5.5,1.2-7.2s1.2-5.2,0-7.7s-1.3-6.3-3.1-8.3c-0.2-0.3-0.4-0.5-0.6-0.7c0.4-0.9,0.8-1.6,1-2.3
		c1.2-2.7,4.5-20.8,3.8-23.8s-2.3-3-2.3-3l8.5-10.5L96.5,78.8z"/>
	<path class="st8" d="M-49.3,83c-0.9,2.7-3.4,14.7-3.4,16s-1.2-0.5-1.2-2.7s0.3-10.8,1.2-14.3c0.8-3.5,2.2-12.5,4.8-15.7
		c2.7-3.2,4.4-7.5,7.3-8.8s9.7-4.7,10.9-5.2S-26,50.2-25,50s-0.7,4.5-2.3,5c-1.7,0.5-8.8,4.7-9.7,5.2s-4.8,4-5.7,5.2
		C-43.5,66.5-49.3,83-49.3,83z"/>
	<path class="st8" d="M-17,48c0.9,1,4.9,7,4.9,7s-1.3,3-3.4,4.3c-2.2,1.3-10.3,13.3-10.2,17.3c0.2,4-1.8,11.2-1.5,12.7
		s0.3,1.5,0.3,1.5s0.7-1.2,1-2s-0.4-2.7,1.1-5.2c1.5-2.5,2.4-10.5,3.2-12.2c0.8-1.7,3-9.5,5-8.7s2.8,5.8,3.2,7.5
		c0.3,1.7-0.8,5.8-0.5,6.5s2,3.5,3,4.7c0.7,0.9,0.7,3.3,0.7,4.5c0,0.4,0,0.7,0,0.7S-9,81.8-9,81.3s-1.8-4.5-2.2-5.5
		c-0.3-1,0-3.5,0-5.2s-1.1-4.5-0.9-6.3c0.2-1.8,0.2-5,0.9-5.7s2-1.7,3.3-1.2s3.3,1.7,3.5,2.7s1.3,2.5,1,4.5s0.1,3.7,0.1,3.7l1.3-1.8
		v-5.2c0,0-2.2-4.5-2.8-5.2c-0.7-0.7-2.7-0.3-3.3-1.2c-0.7-0.8-2.3-4.2-2.3-4.2s-4-3.5-4.1-4.5S-17,48-17,48z"/>
	<path class="st8" d="M0.7,28.4C-0.2,26.7,0,27-0.7,23.7c-0.7-3.3-1-5.7-1.3-7.8s-1.2-2-1.3-4.8c-0.2-2.8,0-6.3,0-7.3
		s-0.5-5.4-1.2-6.9S-6.2-8.2-6-10s2.8-2.2,0-5.2c-2.8-3-4.9-4.3-6-6c-0.9-1.4-2-4-2.7-5c-0.1-0.2-0.3-0.3-0.4-0.4
		c-0.7-0.3-2.5-1.3-2.5-2.3s3.1,0.6,3.1,0.6S-11-24-9.3-23c1.7,1,4.7,4.7,5.5,5.2c0.8,0.6,1.6,2.3,2.1,4.3c0.4,2,1.3,3.8,0.9,5.2
		C-1.2-7-2-6.7-1.8-4C-1.5-1.3-1,2.2-0.5,3.7S0,6.5-0.3,8.3s-1,2.5,0,4.8C0.7,15.5,2,15,1.5,18s0.6,6.2,0.1,6.8
		c-0.4,0.7-1,0,0.1,1.5c1.1,1.5,1.4,4.8,1.4,4.8L0.7,28.4"/>
</g>
<g id="cardiac_arteries">
	<path class="st9" d="M88,48c3.8,12.8,12,35,0,48.5s-11.8,26-14.5,34.3s-3.7,10.3-7,13.2s-7.8,17.2-9.5,22.2s-10.3,13.5-14.5,15.5
		s-13,7-21-3.2c0,0-5.8-3.3-7.3-4.2c-1.5-0.8,2.8,1.5,6.3,6s5,9.7,14,6.7c-2.1,5.9-5.2,14.7-3.8,20.7c0,0,1-9.9,5.1-15.2
		s8.8-7.6,10.9-9.4s0.4,5.8-0.1,11.5s-3.7,13.4-3.2,16s0.5,7,2,9.5c0-5.9,0.6-0.8,0.3-7.4s0.6-6.5,1.6-12.5s2.8-14.5,2.9-15.6
		s2.5-4,4.1-6.4s-0.8,2.3,2.8-5.4s4.8-16.1,8.9-20.9s-1-3.3,4.4-7.5s7.5-12.3,8.5-18.5s5.4-13.6,10.1-18.8s6.3-11.5,6.8-12.6
		c3.3,3.3,6.3,6.7,10.4,11.8c7,8.6,7.9,22,8,23.4s2.5,6.4,6,9.3c-1.1-3.5-2.4-6.4-2.9-8.3c-1.1-4.1,1.1-11.5-3.9-18.8
		S98.9,90,97.9,89.6s2.5-13.7-1.4-30.5c-1.2-5.1-3.8-12.7-7-17.6c-0.8-1.3-5.2-3.3-5.2-3.3L88,48z"/>
	<g>
		<path class="st10" d="M59.2,21.2c0,0.2-0.1,0.3-0.1,0.3S60.3,20.8,59.2,21.2z"/>
		<path class="st9" d="M59,56.3c0,0,3-2.8,4.3-2.8s5.8-0.1,5.8-0.1l-1.3-2.2c0,0-4-1.3-5.3-0.7c-1.3,0.7-5,2-5,2s-0.7,0.2-1.4,0
			c-0.8-0.2-5.3-4.2-6.1-4.2s-1.6-2.3-3.9-2.2s-4.7-2-5-4c-0.2-1-0.6-1.8-1.1-2.4c0.5-0.9,1.5-2.6,2.3-3.5c1.1-1.2,1.6-2.8,2.9-4.3
			s4.3-5.7,6.5-7.2s4.2-2.5,6.7-3.5c0.4-0.2,0.7-0.3,0.9-0.3c0.1-0.6,0.3-1.7-0.1-1.7c-0.5,0-5.3,2.5-7,2.8s-5.5,4.5-6.1,5.3
			s-3.4,3.1-3.8,4.9s-3.6,3-6.4,5.7c-1.3-0.5-6.6-2-7-3.2s-2.3-5.6-5.3-7.2c-2.5-1.3-3-3.7-4.4-3.6c-4.8,0.3-14.2,4.1-16.3,3.6
			c-2-0.5-4,2.5-5.2,4.3s-11.3,6.4-12.5,8.4s-5.8,5.1-6.2,5.8s-1.7,2.2-1.7,2.2s-4.5,2.7-5.8,4.2s-3,2.8-4.7,4.2
			c-1.7,1.3-4.8,3.5-7.4,5.3c-2.5,1.8-3,3-4.1,4c-1.2,1-1.8,5.8-2.7,8c-0.8,2.2-2,6-1.8,7.9s-0.3,2.4,0,4.6s1.7,4,2.3,7
			s-0.2,5.8,0,8.2s0.2,3,0,4.8s4.5,5.3,7,7.5c2.5,2.2,1.8,1.3,1.8,1.3h1.7c0,0,2.2-0.2-1.2-2.8c-3.3-2.7-6.7-7-6.7-7.5
			s0.9-3.5,1-6.5c0.1-2.7-0.5-8.5-1-10s-0.5-8.2,0-10.8s3.5-9.5,3.6-11.7C-40.4,64-31,59.8-27,58c0.7-0.3,1.2-0.8,1.7-1.3l0,0.1
			c0,0,8.2-7.2,10-8.3c1.8-1.2,3.8-3,7-6.2S-1,37.2,2,35c3-2.2,4.7-4.3,7.9-5s4-1.5,6.6-1.2c1.5,0.2,2.4,0.6,3,0.8
			c2.3,2.8,3.8,4.4,4.6,5.3c0.8,1,3.7,3.2,3.7,3.2c2.2,2.2,10.2,3.9,10.2,3.9s2.1,1.5,2.7,3.5s0.2,7.3,0,9.5s-2,9.3-1.4,13.7
			s1.9,9,1.9,9l1.2-1.5c0,0,0.3,1,0-8S43.3,57,44,55c0.7-2,2.2-5.7,1.6-6.5c0.2,0.3,0.5,0.7,0.5,0.7l6.7,5.7c0,0,3.2,2.5,4.7,3.8
			s3.8,1.8,3.8,1.8l4.8,5.2l-4.5-6.3L59,56.3z"/>
	</g>
</g>
<g id="black">
	<g>
		<path class="st11" d="M46.3,1.1c-0.7,0.7-1.5,1.4-2.4,2.1C44.8,2.6,45.6,1.9,46.3,1.1z"/>
		<path class="st11" d="M43.5,3.7c-0.8,0.7-1.6,1.4-2.5,2.1C41.9,5.1,42.7,4.4,43.5,3.7z"/>
		<path class="st11" d="M37.8,8.3c0.9-0.7,1.8-1.4,2.7-2.1C39.7,6.9,38.8,7.6,37.8,8.3z"/>
		<path class="st11" d="M39.5-21.7c-0.1,0-0.2,0-0.3,0c-0.2,1.1-0.5,2.2-0.7,3.4c-0.9,5.2,1.7,12.5,10.2,17
			c3.9-4.4,6.1-8.6,4.6-12.9C50.8-21.5,47-22.5,39.5-21.7z"/>
		<path class="st11" d="M46.5,1c0.7-0.7,1.4-1.4,2-2.1C47.8-0.4,47.2,0.3,46.5,1z"/>
	</g>
	<path class="st11" d="M4.3-89c2.6-5.7,7.7-7.5,8.4-7.5s3.3,3.2,0.1,7.5c-1.6,2.1-4,8.1-5.2,12.9C6.3-71.1,6.7-63.7,7-62.5
		c0.8,2.8-1.9,10.2-4.2,10.2s-4.3-2.2-4.6-5.5S0.9-81.8,4.3-89z"/>
	<path class="st11" d="M164.6-69.2"/>
	<path class="st11" d="M-86,125.5c0.3-5.5,7.3-14.3,13-14.5s5.8,5.8,3.5,11.3s-14.4,23.6-16.5,25.2c-3.2,2.5-4.3,0.4-4.3-4
		C-90.2,141-86,125.5-86,125.5z"/>
</g>
<path class="check" d="M247.9,183.3l-54.4,54.4l-10.2,10.2c-1.4,1.4-3.2,2.1-5.1,2.1s-3.8-0.8-5.1-2.1l-10.2-10.2l-27.2-27.2
	c-1.4-1.4-2.1-3.2-2.1-5.1c0-1.9,0.8-3.8,2.1-5.1l10.2-10.2c1.4-1.4,3.2-2.1,5.1-2.1s3.8,0.8,5.1,2.1l22.1,22.2l49.3-49.4
	c1.4-1.4,3.2-2.1,5.1-2.1c1.9,0,3.8,0.8,5.1,2.1l10.2,10.2c1.4,1.4,2.1,3.2,2.1,5.1C250,180.1,249.2,181.9,247.9,183.3z"/>
</svg>
