<?xml version="1.0" encoding="utf-8"?>
<!-- Generator: Adobe Illustrator 17.0.0, SVG Export Plug-In . SVG Version: 6.00 Build 0)  -->
<!DOCTYPE svg PUBLIC "-//W3C//DTD SVG 1.1//EN" "http://www.w3.org/Graphics/SVG/1.1/DTD/svg11.dtd">
<svg version="1.1" id="Layer_1" xmlns="http://www.w3.org/2000/svg" xmlns:xlink="http://www.w3.org/1999/xlink" x="0px" y="0px"
	 width="400px" height="400px" viewBox="-150 -150 400 400" style="enable-background:new -150 -150 400 400;" xml:space="preserve"
	>
<style type="text/css">
	.st0{opacity:0.75;fill:#E36723;enable-background:new    ;}
	.st1{fill:none;stroke:#231F20;stroke-width:0.75;stroke-linejoin:round;stroke-miterlimit:10;}
	.st2{fill:url(#SVGID_1_);stroke:#D6DE23;stroke-width:0.25;stroke-miterlimit:10;}
	.st3{fill:url(#SVGID_2_);stroke:#009345;stroke-width:0.25;stroke-miterlimit:10;}
	.st4{fill:url(#SVGID_3_);stroke:#D6DE23;stroke-width:0.25;stroke-miterlimit:10;}
	.st5{fill:url(#SVGID_4_);stroke:#D6DE23;stroke-width:0.25;stroke-miterlimit:10;}
	.st6{fill:url(#SVGID_5_);stroke:#D6DE23;stroke-width:0.25;stroke-miterlimit:10;}
	.st7{fill:url(#SVGID_6_);stroke:#D6DE23;stroke-width:0.25;stroke-miterlimit:10;}
	.st8{fill:url(#SVGID_7_);stroke:#009345;stroke-width:0.25;stroke-miterlimit:10;}
	.st9{fill:url(#SVGID_8_);stroke:#D6DE23;stroke-width:0.25;stroke-miterlimit:10;}
	.st10{fill:url(#SVGID_9_);stroke:#D6DE23;stroke-width:0.25;stroke-miterlimit:10;}
	.st11{fill:url(#SVGID_10_);stroke:#D6DE23;stroke-width:0.25;stroke-miterlimit:10;}
	.st12{fill:url(#SVGID_11_);stroke:#009345;stroke-width:0.25;stroke-miterlimit:10;}
	.st13{fill:url(#SVGID_12_);stroke:#D6DE23;stroke-width:0.25;stroke-miterlimit:10;}
	.st14{fill:url(#SVGID_13_);stroke:#D6DE23;stroke-width:0.25;stroke-miterlimit:10;}
	.st15{fill:url(#SVGID_14_);stroke:#D6DE23;stroke-width:0.25;stroke-miterlimit:10;}
	.st16{fill:url(#SVGID_15_);stroke:#009345;stroke-width:0.25;stroke-miterlimit:10;}
	.st17{fill:url(#SVGID_16_);stroke:#D6DE23;stroke-width:0.25;stroke-miterlimit:10;}
	.st18{fill:url(#SVGID_17_);stroke:#D6DE23;stroke-width:0.25;stroke-miterlimit:10;}
	.st19{fill:url(#SVGID_18_);stroke:#D6DE23;stroke-width:0.25;stroke-miterlimit:10;}
	.st20{fill:url(#SVGID_19_);stroke:#009345;stroke-width:0.25;stroke-miterlimit:10;}
	.st21{fill:url(#SVGID_20_);stroke:#D6DE23;stroke-width:0.25;stroke-miterlimit:10;}
	.st22{fill:url(#SVGID_21_);stroke:#D6DE23;stroke-width:0.25;stroke-miterlimit:10;}
	.st23{fill:url(#SVGID_22_);stroke:#D6DE23;stroke-width:0.25;stroke-miterlimit:10;}
	.st24{fill:url(#SVGID_23_);stroke:#009345;stroke-width:0.25;stroke-miterlimit:10;}
	.st25{fill:url(#SVGID_24_);stroke:#009345;stroke-width:0.25;stroke-miterlimit:10;}
	.st26{fill:url(#SVGID_25_);stroke:#009345;stroke-width:0.25;stroke-miterlimit:10;}
	.st27{fill:url(#SVGID_26_);stroke:#D6DE23;stroke-width:0.25;stroke-miterlimit:10;}
	.trophy{stroke:#fff;stroke-width:4px;stroke-linecap:round;fill:#F06324;}
</style>
<g id="circle">
	<circle class="st0" cx="50" cy="50" r="200"/>
</g>
<g id="lines">
	<line class="st1" x1="37" y1="-107.8" x2="90.7" y2="-107.8"/>
	<line class="st1" x1="71.9" y1="-107.8" x2="71.9" y2="-80.4"/>
	<polyline class="st1" points="8.1,-45.5 8.1,-80.4 51.7,-80.4 135.6,-80.4 135.6,-45.5 	"/>
	<line class="st1" x1="50.6" y1="-45.5" x2="50.6" y2="-80.4"/>
	<line class="st1" x1="93.1" y1="-45.5" x2="93.1" y2="-80.4"/>
	<line class="st1" x1="50.6" y1="-45.5" x2="50.6" y2="-10.6"/>
	<polyline class="st1" points="-11.5,16.2 -11.5,-10.6 28.8,-10.6 112.7,-10.6 112.7,16.2 	"/>
	<line class="st1" x1="112.7" y1="20.9" x2="112.7" y2="47.8"/>
	<polyline class="st1" points="99,74.7 99,47.8 139.3,47.8 223.2,47.8 223.2,74.7 	"/>
	<line class="st1" x1="140.4" y1="74.7" x2="140.4" y2="47.8"/>
	<line class="st1" x1="181.8" y1="74.7" x2="181.8" y2="47.8"/>
	<line class="st1" x1="-11.5" y1="20.9" x2="-11.5" y2="47.8"/>
	<polyline class="st1" points="-123.2,74.7 -123.2,47.8 -82.9,47.8 1,47.8 1,74.7 	"/>
	<line class="st1" x1="-81.8" y1="74.7" x2="-81.8" y2="47.8"/>
	<line class="st1" x1="-40.4" y1="74.7" x2="-40.4" y2="47.8"/>
	<line class="st1" x1="29.9" y1="-10.6" x2="29.9" y2="103.3"/>
	<polyline class="st1" points="-77.9,130.1 -77.9,103.3 -37.6,103.3 46.3,103.3 46.3,130.1 	"/>
	<line class="st1" x1="-36.5" y1="130.1" x2="-36.5" y2="103.3"/>
	<line class="st1" x1="4.9" y1="130.1" x2="4.9" y2="103.3"/>
	<line class="st1" x1="71.3" y1="-10.6" x2="71.3" y2="161"/>
	<polyline class="st1" points="9.2,187.8 9.2,161 49.5,161 133.4,161 133.4,187.8 	"/>
	<line class="st1" x1="50.6" y1="187.8" x2="50.6" y2="161"/>
	<line class="st1" x1="92" y1="187.8" x2="92" y2="161"/>
</g>
<g id="peas">
	
		<radialGradient id="SVGID_1_" cx="65.8847" cy="199.8718" r="17.8401" gradientTransform="matrix(0.9408 0 0 -0.9408 -17.6203 80.1914)" gradientUnits="userSpaceOnUse">
		<stop  offset="0" style="stop-color:#F9EC31"/>
		<stop  offset="1" style="stop-color:#FAAF40"/>
	</radialGradient>
	<circle class="st2" cx="44.4" cy="-107.8" r="16.8"/>
	
		<radialGradient id="SVGID_2_" cx="124.3371" cy="199.8718" r="17.8401" gradientTransform="matrix(0.9408 0 0 -0.9408 -17.6203 80.1914)" gradientUnits="userSpaceOnUse">
		<stop  offset="0" style="stop-color:#37B34A"/>
		<stop  offset="1" style="stop-color:#006838"/>
	</radialGradient>
	<circle class="st3" cx="99.4" cy="-107.8" r="16.8"/>
	
		<radialGradient id="SVGID_3_" cx="27.3217" cy="133.6006" r="17.8401" gradientTransform="matrix(0.9408 0 0 -0.9408 -17.6203 80.1914)" gradientUnits="userSpaceOnUse">
		<stop  offset="0" style="stop-color:#F9EC31"/>
		<stop  offset="1" style="stop-color:#FAAF40"/>
	</radialGradient>
	<circle class="st4" cx="8.1" cy="-45.5" r="16.8"/>
	
		<radialGradient id="SVGID_4_" cx="162.9" cy="133.6006" r="17.8401" gradientTransform="matrix(0.9408 0 0 -0.9408 -17.6203 80.1914)" gradientUnits="userSpaceOnUse">
		<stop  offset="0" style="stop-color:#F9EC31"/>
		<stop  offset="1" style="stop-color:#FAAF40"/>
	</radialGradient>
	<circle class="st5" cx="135.6" cy="-45.5" r="16.8"/>
	
		<radialGradient id="SVGID_5_" cx="117.7044" cy="133.6006" r="17.8401" gradientTransform="matrix(0.9408 0 0 -0.9408 -17.6203 80.1914)" gradientUnits="userSpaceOnUse">
		<stop  offset="0" style="stop-color:#F9EC31"/>
		<stop  offset="1" style="stop-color:#FAAF40"/>
	</radialGradient>
	<circle class="st6" cx="93.1" cy="-45.5" r="16.8"/>
	
		<radialGradient id="SVGID_6_" cx="72.5131" cy="133.6006" r="17.8401" gradientTransform="matrix(0.9408 0 0 -0.9408 -17.6203 80.1914)" gradientUnits="userSpaceOnUse">
		<stop  offset="0" style="stop-color:#F9EC31"/>
		<stop  offset="1" style="stop-color:#FAAF40"/>
	</radialGradient>
	<circle class="st7" cx="50.6" cy="-45.5" r="16.8"/>
	
		<radialGradient id="SVGID_7_" cx="138.5165" cy="68.0096" r="17.8401" gradientTransform="matrix(0.9408 0 0 -0.9408 -17.6203 80.1914)" gradientUnits="userSpaceOnUse">
		<stop  offset="0" style="stop-color:#37B34A"/>
		<stop  offset="1" style="stop-color:#006838"/>
	</radialGradient>
	<circle class="st8" cx="112.7" cy="16.2" r="16.8"/>
	
		<radialGradient id="SVGID_8_" cx="6.5097" cy="68.0096" r="17.8401" gradientTransform="matrix(0.9408 0 0 -0.9408 -17.6203 80.1914)" gradientUnits="userSpaceOnUse">
		<stop  offset="0" style="stop-color:#F9EC31"/>
		<stop  offset="1" style="stop-color:#FAAF40"/>
	</radialGradient>
	<circle class="st9" cx="-11.5" cy="16.2" r="16.8"/>
	
		<radialGradient id="SVGID_9_" cx="94.5156" cy="68.0096" r="17.8401" gradientTransform="matrix(0.9408 0 0 -0.9408 -17.6203 80.1914)" gradientUnits="userSpaceOnUse">
		<stop  offset="0" style="stop-color:#F9EC31"/>
		<stop  offset="1" style="stop-color:#FAAF40"/>
	</radialGradient>
	<circle class="st10" cx="71.3" cy="16.2" r="16.8"/>
	
		<radialGradient id="SVGID_10_" cx="50.5105" cy="68.0096" r="17.8401" gradientTransform="matrix(0.9408 0 0 -0.9408 -17.6203 80.1914)" gradientUnits="userSpaceOnUse">
		<stop  offset="0" style="stop-color:#F9EC31"/>
		<stop  offset="1" style="stop-color:#FAAF40"/>
	</radialGradient>
	<circle class="st11" cx="29.9" cy="16.2" r="16.8"/>
	
		<radialGradient id="SVGID_11_" cx="255.991" cy="5.888" r="17.8401" gradientTransform="matrix(0.9408 0 0 -0.9408 -17.6203 80.1914)" gradientUnits="userSpaceOnUse">
		<stop  offset="0" style="stop-color:#37B34A"/>
		<stop  offset="1" style="stop-color:#006838"/>
	</radialGradient>
	<circle class="st12" cx="223.2" cy="74.7" r="16.8"/>
	
		<radialGradient id="SVGID_12_" cx="-112.2403" cy="5.888" r="17.8401" gradientTransform="matrix(0.9408 0 0 -0.9408 -17.6203 80.1914)" gradientUnits="userSpaceOnUse">
		<stop  offset="0" style="stop-color:#F9EC31"/>
		<stop  offset="1" style="stop-color:#FAAF40"/>
	</radialGradient>
	<circle class="st13" cx="-123.2" cy="74.7" r="16.8"/>
	
		<radialGradient id="SVGID_13_" cx="-24.2344" cy="5.888" r="17.8401" gradientTransform="matrix(0.9408 0 0 -0.9408 -17.6203 80.1914)" gradientUnits="userSpaceOnUse">
		<stop  offset="0" style="stop-color:#F9EC31"/>
		<stop  offset="1" style="stop-color:#FAAF40"/>
	</radialGradient>
	<circle class="st14" cx="-40.4" cy="74.7" r="16.8"/>
	
		<radialGradient id="SVGID_14_" cx="-68.2395" cy="5.888" r="17.8401" gradientTransform="matrix(0.9408 0 0 -0.9408 -17.6203 80.1914)" gradientUnits="userSpaceOnUse">
		<stop  offset="0" style="stop-color:#F9EC31"/>
		<stop  offset="1" style="stop-color:#FAAF40"/>
	</radialGradient>
	<circle class="st15" cx="-81.8" cy="74.7" r="16.8"/>
	
		<radialGradient id="SVGID_15_" cx="67.9212" cy="-53.0789" r="17.8401" gradientTransform="matrix(0.9408 0 0 -0.9408 -17.6203 80.1914)" gradientUnits="userSpaceOnUse">
		<stop  offset="0" style="stop-color:#37B34A"/>
		<stop  offset="1" style="stop-color:#006838"/>
	</radialGradient>
	<circle class="st16" cx="46.3" cy="130.1" r="16.8"/>
	
		<radialGradient id="SVGID_16_" cx="-64.0898" cy="-53.0789" r="17.8401" gradientTransform="matrix(0.9408 0 0 -0.9408 -17.6203 80.1914)" gradientUnits="userSpaceOnUse">
		<stop  offset="0" style="stop-color:#F9EC31"/>
		<stop  offset="1" style="stop-color:#FAAF40"/>
	</radialGradient>
	<circle class="st17" cx="-77.9" cy="130.1" r="16.8"/>
	
		<radialGradient id="SVGID_17_" cx="23.9161" cy="-53.0789" r="17.8401" gradientTransform="matrix(0.9408 0 0 -0.9408 -17.6203 80.1914)" gradientUnits="userSpaceOnUse">
		<stop  offset="0" style="stop-color:#F9EC31"/>
		<stop  offset="1" style="stop-color:#FAAF40"/>
	</radialGradient>
	<circle class="st18" cx="4.9" cy="130.1" r="16.8"/>
	
		<radialGradient id="SVGID_18_" cx="-20.089" cy="-53.0789" r="17.8401" gradientTransform="matrix(0.9408 0 0 -0.9408 -17.6203 80.1914)" gradientUnits="userSpaceOnUse">
		<stop  offset="0" style="stop-color:#F9EC31"/>
		<stop  offset="1" style="stop-color:#FAAF40"/>
	</radialGradient>
	<circle class="st19" cx="-36.5" cy="130.1" r="16.8"/>
	
		<radialGradient id="SVGID_19_" cx="160.519" cy="-114.4309" r="17.8401" gradientTransform="matrix(0.9408 0 0 -0.9408 -17.6203 80.1914)" gradientUnits="userSpaceOnUse">
		<stop  offset="0" style="stop-color:#37B34A"/>
		<stop  offset="1" style="stop-color:#006838"/>
	</radialGradient>
	<circle class="st20" cx="133.4" cy="187.8" r="16.8"/>
	
		<radialGradient id="SVGID_20_" cx="28.508" cy="-114.4309" r="17.8401" gradientTransform="matrix(0.9408 0 0 -0.9408 -17.6203 80.1914)" gradientUnits="userSpaceOnUse">
		<stop  offset="0" style="stop-color:#F9EC31"/>
		<stop  offset="1" style="stop-color:#FAAF40"/>
	</radialGradient>
	<circle class="st21" cx="9.2" cy="187.8" r="16.8"/>
	
		<radialGradient id="SVGID_21_" cx="116.5182" cy="-114.4309" r="17.8401" gradientTransform="matrix(0.9408 0 0 -0.9408 -17.6203 80.1914)" gradientUnits="userSpaceOnUse">
		<stop  offset="0" style="stop-color:#F9EC31"/>
		<stop  offset="1" style="stop-color:#FAAF40"/>
	</radialGradient>
	<circle class="st22" cx="92" cy="187.8" r="16.8"/>
	
		<radialGradient id="SVGID_22_" cx="72.5131" cy="-114.4309" r="17.8401" gradientTransform="matrix(0.9408 0 0 -0.9408 -17.6203 80.1914)" gradientUnits="userSpaceOnUse">
		<stop  offset="0" style="stop-color:#F9EC31"/>
		<stop  offset="1" style="stop-color:#FAAF40"/>
	</radialGradient>
	<circle class="st23" cx="50.6" cy="187.8" r="16.8"/>
	
		<radialGradient id="SVGID_23_" cx="123.9842" cy="5.888" r="17.8401" gradientTransform="matrix(0.9408 0 0 -0.9408 -17.6203 80.1914)" gradientUnits="userSpaceOnUse">
		<stop  offset="0" style="stop-color:#37B34A"/>
		<stop  offset="1" style="stop-color:#006838"/>
	</radialGradient>
	<circle class="st24" cx="99" cy="74.7" r="16.8"/>
	
		<radialGradient id="SVGID_24_" cx="167.985" cy="5.888" r="17.8401" gradientTransform="matrix(0.9408 0 0 -0.9408 -17.6203 80.1914)" gradientUnits="userSpaceOnUse">
		<stop  offset="0" style="stop-color:#37B34A"/>
		<stop  offset="1" style="stop-color:#006838"/>
	</radialGradient>
	<circle class="st25" cx="140.4" cy="74.7" r="16.8"/>
	
		<radialGradient id="SVGID_25_" cx="211.9901" cy="5.888" r="17.8401" gradientTransform="matrix(0.9408 0 0 -0.9408 -17.6203 80.1914)" gradientUnits="userSpaceOnUse">
		<stop  offset="0" style="stop-color:#37B34A"/>
		<stop  offset="1" style="stop-color:#006838"/>
	</radialGradient>
	<circle class="st26" cx="181.8" cy="74.7" r="16.8"/>
	
		<radialGradient id="SVGID_26_" cx="19.7665" cy="5.888" r="17.8401" gradientTransform="matrix(0.9408 0 0 -0.9408 -17.6203 80.1914)" gradientUnits="userSpaceOnUse">
		<stop  offset="0" style="stop-color:#F9EC31"/>
		<stop  offset="1" style="stop-color:#FAAF40"/>
	</radialGradient>
	<circle class="st27" cx="1" cy="74.7" r="16.8"/>
</g>
<path class="trophy" d="M250,170.7c0,14.3-17.3,30.1-40.7,31.2c-3,3.8-5.8,6.1-7.1,7.1c-4,3.6-5,7.4-5,12.2c0,4.8,2.4,9.6,9.6,9.6
	c7.2,0,14.4,4.8,14.4,12v4.8c0,1.4-1.1,2.4-2.4,2.4h-62.5c-1.4,0-2.4-1.1-2.4-2.4v-4.8c0-7.2,7.2-12,14.4-12c7.2,0,9.6-4.8,9.6-9.6
	c0-4.8-1.1-8.6-5-12.2c-1.4-1.1-4.1-3.3-7.1-7.1c-23.4-1.1-40.7-16.9-40.7-31.2v-9.6c0-4,3.2-7.2,7.2-7.2h21.6v-7.2
	c0-6.6,5.4-12,12-12h43.3c6.6,0,12,5.4,12,12v7.2h21.6c4,0,7.2,3.2,7.2,7.2V170.7z M153.8,163.5h-19.2v7.2c0,7.4,10,17.6,24.8,20.7
	C156.3,184.4,153.8,175.3,153.8,163.5z M240.4,163.5h-19.2c0,11.8-2.4,21-5.6,27.9c14.8-3.1,24.8-13.3,24.8-20.7V163.5z"/>
</svg>
